{"people":{"result":[{"url":"https://staff.yandex-team.ru/robot-support-taxi","click_urls":["//clck.yandex.ru/click/dtype=SAAS/p=0/saas_url=https%3A%2F%2Fstaff.yandex-team.ru%2Frobot-support-taxi/robot=0/r=%25D0%25A1%25D0%25B0%25D0%25BF%25D1%2582%25D0%25B5%25D1%2585/service=intrasearch-people/kps=83933/uid=is1120000001250784/yandexuid=is1120000001250784/reqid=1752920117184199-7588910678254336370-saas-searchproxy-stable-sas-23-SAAS-intrasearch-people/raId=95F6B9F318A5F4F4/slots=1317007,0,13;1308575,0,97;1272065,0,54;1312773,0,11;1211160,0,86/how=rlv/*data=url%3Dhttps%3A%2F%2Fstaff.yandex-team.ru%2Frobot-support-taxi"],"layer":"people","id":"robot-support-taxi","title":"Робот Саптеха","staff_id":25462,"uid":"1120000000050978","login":"robot-support-taxi","name":{"first":"Робот","last":"Саптеха","middle":""},"is_dismissed":false,"affiliation":"external","is_robot":true,"is_memorial":false,"staff_agreement":false,"person_skills":[]},{"url":"https://staff.yandex-team.ru/popchenko-vs","click_urls":["//clck.yandex.ru/click/dtype=SAAS/p=1/saas_url=https%3A%2F%2Fstaff.yandex-team.ru%2Fpopchenko-vs/robot=0/r=%25D0%25A1%25D0%25B0%25D0%25BF%25D1%2582%25D0%25B5%25D1%2585/service=intrasearch-people/kps=83933/uid=is1120000001250784/yandexuid=is1120000001250784/reqid=1752920117184199-7588910678254336370-saas-searchproxy-stable-sas-23-SAAS-intrasearch-people/raId=95F6B9F318A5F4F4/slots=1317007,0,13;1308575,0,97;1272065,0,54;1312773,0,11;1211160,0,86/how=rlv/*data=url%3Dhttps%3A%2F%2Fstaff.yandex-team.ru%2Fpopchenko-vs"],"layer":"people","id":"popchenko-vs","title":"Владислав Попченко","staff_id":151948,"uid":"1120000000303838","login":"popchenko-vs","name":{"first":"Владислав","last":"Попченко","middle":""},"is_dismissed":false,"affiliation":"external","is_robot":false,"is_memorial":false,"staff_agreement":false,"person_skills":["memes","Memology"]},{"url":"https://staff.yandex-team.ru/itakinrovodis","click_urls":["//clck.yandex.ru/click/dtype=SAAS/p=2/saas_url=https%3A%2F%2Fstaff.yandex-team.ru%2Fitakinrovodis/robot=0/r=%25D0%25A1%25D0%25B0%25D0%25BF%25D1%2582%25D0%25B5%25D1%2585/service=intrasearch-people/kps=83933/uid=is1120000001250784/yandexuid=is1120000001250784/reqid=1752920117184199-7588910678254336370-saas-searchproxy-stable-sas-23-SAAS-intrasearch-people/raId=95F6B9F318A5F4F4/slots=1317007,0,13;1308575,0,97;1272065,0,54;1312773,0,11;1211160,0,86/how=rlv/*data=url%3Dhttps%3A%2F%2Fstaff.yandex-team.ru%2Fitakinrovodis"],"layer":"people","id":"itakinrovodis","title":"Никита Сидоров","staff_id":443366,"uid":"1120000000704539","login":"itakinrovodis","name":{"first":"Никита","last":"Сидоров","middle":""},"is_dismissed":false,"affiliation":"external","is_robot":false,"is_memorial":false,"staff_agreement":true,"person_skills":[]},{"url":"https://staff.yandex-team.ru/robot-edec","click_urls":["//clck.yandex.ru/click/dtype=SAAS/p=3/saas_url=https%3A%2F%2Fstaff.yandex-team.ru%2Frobot-edec/robot=0/r=%25D0%25A1%25D0%25B0%25D0%25BF%25D1%2582%25D0%25B5%25D1%2585/service=intrasearch-people/kps=83933/uid=is1120000001250784/yandexuid=is1120000001250784/reqid=1752920117184199-7588910678254336370-saas-searchproxy-stable-sas-23-SAAS-intrasearch-people/raId=95F6B9F318A5F4F4/slots=1317007,0,13;1308575,0,97;1272065,0,54;1312773,0,11;1211160,0,86/how=rlv/*data=url%3Dhttps%3A%2F%2Fstaff.yandex-team.ru%2Frobot-edec"],"layer":"people","id":"robot-edec","title":"Едец Саптеховской","staff_id":726283,"uid":"1120000001320887","login":"robot-edec","name":{"first":"Едец","last":"Саптеховской","middle":""},"is_dismissed":false,"affiliation":"external","is_robot":true,"is_memorial":false,"staff_agreement":false,"person_skills":[]},{"url":"https://staff.yandex-team.ru/ivanrybakov","click_urls":["//clck.yandex.ru/click/dtype=SAAS/p=4/saas_url=https%3A%2F%2Fstaff.yandex-team.ru%2Fivanrybakov/robot=0/r=%25D0%25A1%25D0%25B0%25D0%25BF%25D1%2582%25D0%25B5%25D1%2585/service=intrasearch-people/kps=83933/uid=is1120000001250784/yandexuid=is1120000001250784/reqid=1752920117184199-7588910678254336370-saas-searchproxy-stable-sas-23-SAAS-intrasearch-people/raId=95F6B9F318A5F4F4/slots=1317007,0,13;1308575,0,97;1272065,0,54;1312773,0,11;1211160,0,86/how=rlv/*data=url%3Dhttps%3A%2F%2Fstaff.yandex-team.ru%2Fivanrybakov"],"layer":"people","id":"ivanrybakov","title":"Иван Рыбаков","staff_id":537592,"uid":"1120000000964739","login":"ivanrybakov","name":{"first":"Иван","last":"Рыбаков","middle":""},"is_dismissed":false,"affiliation":"yandex","is_robot":false,"is_memorial":false,"staff_agreement":true,"person_skills":["Перекладывание JSON-ов","крутить бейджик"]},{"url":"https://staff.yandex-team.ru/v-a-babenko","click_urls":["//clck.yandex.ru/click/dtype=SAAS/p=5/saas_url=https%3A%2F%2Fstaff.yandex-team.ru%2Fv-a-babenko/robot=0/r=%25D0%25A1%25D0%25B0%25D0%25BF%25D1%2582%25D0%25B5%25D1%2585/service=intrasearch-people/kps=83933/uid=is1120000001250784/yandexuid=is1120000001250784/reqid=1752920117184199-7588910678254336370-saas-searchproxy-stable-sas-23-SAAS-intrasearch-people/raId=95F6B9F318A5F4F4/slots=1317007,0,13;1308575,0,97;1272065,0,54;1312773,0,11;1211160,0,86/how=rlv/*data=url%3Dhttps%3A%2F%2Fstaff.yandex-team.ru%2Fv-a-babenko"],"layer":"people","id":"v-a-babenko","title":"Владислав Бабенко","staff_id":77305,"uid":"1120000000203815","login":"v-a-babenko","name":{"first":"Владислав","last":"Бабенко","middle":""},"is_dismissed":false,"affiliation":"external","is_robot":false,"is_memorial":false,"staff_agreement":true,"person_skills":[]},{"url":"https://staff.yandex-team.ru/robot-suptech-eda","click_urls":["//clck.yandex.ru/click/dtype=SAAS/p=6/saas_url=https%3A%2F%2Fstaff.yandex-team.ru%2Frobot-suptech-eda/robot=0/r=%25D0%25A1%25D0%25B0%25D0%25BF%25D1%2582%25D0%25B5%25D1%2585/service=intrasearch-people/kps=83933/uid=is1120000001250784/yandexuid=is1120000001250784/reqid=1752920117184199-7588910678254336370-saas-searchproxy-stable-sas-23-SAAS-intrasearch-people/raId=95F6B9F318A5F4F4/slots=1317007,0,13;1308575,0,97;1272065,0,54;1312773,0,11;1211160,0,86/how=rlv/*data=url%3Dhttps%3A%2F%2Fstaff.yandex-team.ru%2Frobot-suptech-eda"],"layer":"people","id":"robot-suptech-eda","title":"Саптеховец Едовской","staff_id":394950,"uid":"1120000000596381","login":"robot-suptech-eda","name":{"first":"Саптеховец","last":"Едовской","middle":""},"is_dismissed":false,"affiliation":"external","is_robot":true,"is_memorial":false,"staff_agreement":false,"person_skills":[]},{"url":"https://staff.yandex-team.ru/xerotut","click_urls":["//clck.yandex.ru/click/dtype=SAAS/p=7/saas_url=https%3A%2F%2Fstaff.yandex-team.ru%2Fxerotut/robot=0/r=%25D0%25A1%25D0%25B0%25D0%25BF%25D1%2582%25D0%25B5%25D1%2585/service=intrasearch-people/kps=83933/uid=is1120000001250784/yandexuid=is1120000001250784/reqid=1752920117184199-7588910678254336370-saas-searchproxy-stable-sas-23-SAAS-intrasearch-people/raId=95F6B9F318A5F4F4/slots=1317007,0,13;1308575,0,97;1272065,0,54;1312773,0,11;1211160,0,86/how=rlv/*data=url%3Dhttps%3A%2F%2Fstaff.yandex-team.ru%2Fxerotut"],"layer":"people","id":"xerotut","title":"Василий Рудой","staff_id":533103,"uid":"1120000000967783","login":"xerotut","name":{"first":"Василий","last":"Рудой","middle":""},"is_dismissed":false,"affiliation":"external","is_robot":false,"is_memorial":false,"staff_agreement":true,"person_skills":[]},{"url":"https://staff.yandex-team.ru/timoshenkobog","click_urls":["//clck.yandex.ru/click/dtype=SAAS/p=8/saas_url=https%3A%2F%2Fstaff.yandex-team.ru%2Ftimoshenkobog/robot=0/r=%25D0%25A1%25D0%25B0%25D0%25BF%25D1%2582%25D0%25B5%25D1%2585/service=intrasearch-people/kps=83933/uid=is1120000001250784/yandexuid=is1120000001250784/reqid=1752920117184199-7588910678254336370-saas-searchproxy-stable-sas-23-SAAS-intrasearch-people/raId=95F6B9F318A5F4F4/slots=1317007,0,13;1308575,0,97;1272065,0,54;1312773,0,11;1211160,0,86/how=rlv/*data=url%3Dhttps%3A%2F%2Fstaff.yandex-team.ru%2Ftimoshenkobog"],"layer":"people","id":"timoshenkobog","title":"Богдан Тимошенко","staff_id":503035,"uid":"1120000000885902","login":"timoshenkobog","name":{"first":"Богдан","last":"Тимошенко","middle":""},"is_dismissed":false,"affiliation":"external","is_robot":false,"is_memorial":false,"staff_agreement":true,"person_skills":[]},{"url":"https://staff.yandex-team.ru/fainer","click_urls":["//clck.yandex.ru/click/dtype=SAAS/p=9/saas_url=https%3A%2F%2Fstaff.yandex-team.ru%2Ffainer/robot=0/r=%25D0%25A1%25D0%25B0%25D0%25BF%25D1%2582%25D0%25B5%25D1%2585/service=intrasearch-people/kps=83933/uid=is1120000001250784/yandexuid=is1120000001250784/reqid=1752920117184199-7588910678254336370-saas-searchproxy-stable-sas-23-SAAS-intrasearch-people/raId=95F6B9F318A5F4F4/slots=1317007,0,13;1308575,0,97;1272065,0,54;1312773,0,11;1211160,0,86/how=rlv/*data=url%3Dhttps%3A%2F%2Fstaff.yandex-team.ru%2Ffainer"],"layer":"people","id":"fainer","title":"Ярослав Быков","staff_id":575264,"uid":"1120000001088459","login":"fainer","name":{"first":"Ярослав","last":"Быков","middle":""},"is_dismissed":false,"affiliation":"external","is_robot":false,"is_memorial":false,"staff_agreement":true,"person_skills":[]}],"pagination":{"page":0,"per_page":10,"pages":65,"count":643}}}